49			60	60	60	57	56			58	59	60	60	50	39					36												39		46										43					93				94					93						96				95			94						96	
														33							35							13																											95					95													93					
																																																			95																									94		
51			51			63			51																																			44																			94			93												
54			61			64			51					34																														45						96				93				96											94					96				
55			62			65			51																																	25																			93										95							
52			51			66			51																																														94																				93			
53			51			67			51					33																																						96											95															
																													38																				94								93		94								96				93							95
3			15			3			15																									3						15																																						
41											48			47	42					5	4							37			11	40	41											42																																		
																																																																														
																																																																														
																																																																														
																																																																														
68														48						7	11				4							17				19								9					97							98															79	84						
	3						15							33						6								24				6							33		34		33	6																											102	25	38	25			104	
69																																																																													104	
																						22											22																																												23	
																									31											32																																									104	
																																																																								25					23	
														34																																																													103			
																																																								99																						
																																																																														
																																																																								25						
																																		27																																					88							
														33																																																																
																				29	8											28	8											30																																		
																				6												6	3				15				3			6																																		
																																																																							44	38						
49																						18							13				12							13									100									101													102							
														34																																																																
																																																																														
24																																																																								38						
																																																																													23	
																																																																													104	
56														33							3			15									15																																												104	
																																				2					14																															38	38	25		25	38	38
			70				70				70																						1	3																																												
68														48						5	19											5	4										11	10																											86	84						
																												20																																																		
																																																																														
																																																																														
																										23																																																				
3			15			37			3			15								7				19								17	11				4							9					90									91													79	84						
	71			72		72		72		24				34						6									24			6		25										6																											88							
																																																																							43							
																					22													22																																												
56											49			33										21													26																																									
																																																																							44							
																																																																							81							
		24							71					43																																																																
																																																																											87			
																																																																														
73														34											15															27																		92															25					
																					3								3																																											25		25				
																				29	8											28	8											30																																		
																				6		27										6		72							72			6																											88							
																																																																														
																					75							13						35							13																																					
														33																																																																
																																																																														
74																																																																							44							
														43																																																									89							
49																																																																														
																					71												74																																													
														34																																																																
74																																																																														
																				5	4										11	16	19											10																											86	84						
56																																																																														
																																																																														
																																																																														
34																																																																														
														33	3			15			3			15			3			15			3			15			3			15							79	82					48					47	82					80					79	84						
																																																	81	49													71			81					81	56			85			
33																																																																														
																	76												76														77	34																																		
																																																		83																												
34														34																													77																																			
	25	25				25	25	25				25	25																															78																																		
			3						15						70												70												70		70																																					